…
## Figure 4D

``` r
temp_skew_snp_df = snp_skew_auc_with_meta_df %>% filter(skew_auc >= .75 & skew_auc_significance == TRUE & label != 'Human')
temp_skew_snp_df = temp_skew_snp_df %>% group_by(label, gene) %>% mutate(gene = replace(gene,  expression < max(expression), ""))
#Keep the full annotated gene list to include in the paper text
temp_skew_snp_df
```

    ## # A tibble: 115 × 16
    ## # Groups:   label, gene [52]
    ##    variants    chrom_pos gene           skew_auc skew_auc_pval skew_auc_adj_pval
    ##    <chr>           <dbl> <chr>             <dbl>         <dbl>             <dbl>
    ##  1 10987530AG   10987530 ""                0.798 0.000395            0.00530    
    ##  2 10989167GA   10989167 ""                0.777 0.000972            0.0100     
    ##  3 10989336TC   10989336 ""                0.796 0.000742            0.00831    
    ##  4 10989390CT   10989390 ""                0.784 0.00119             0.0115     
    ##  5 114548228AG 114548228 ""                0.755 0.0000991           0.00195    
    ##  6 116320245AG 116320245 "LOC101108113"    0.767 0.000388            0.00523    
    ##  7 25132733GA   25132733 "LOC114111559"    0.799 0.00000000238       0.000000210
    ##  8 25132752AT   25132752 ""                0.762 0.000000795         0.0000379  
    ##  9 47731599CT   47731599 "LAS1L"           0.832 0.00000142          0.0000620  
    ## 10 5194904CT     5194904 "LOC101117055"    0.833 0.00000272          0.000106   
    ## # ℹ 105 more rows
    ## # ℹ 10 more variables: skew_auc_significance <lgl>,
    ## #   skew_auc_power_significance <dbl>, skew_auc_power_effect_55 <dbl>,
    ## #   skew_auc_power_effect_75 <dbl>, skew_auc_bootstrap_var <dbl>,
    ## #   skew_auc_n_pos <dbl>, skew_auc_n_neg <dbl>, variant_prevalence <dbl>,
    ## #   expression <dbl>, label <chr>
…
